linear_regression.utf8
…
Check if there is any third order polynomial relationships.

poly_pred <- test_relationship(Boston_df, "crim", n_poly = 3, show_intercept = FALSE)
poly_pred

## # A tibble: 33 x 28
##    predictor call.x terms.x residuals.x Estimate `Std. Error`     pval aliased.x
##    <chr>     <name> <named> <named lis>    <dbl>        <dbl>    <dbl> <named l>
##  1 zn        <lang <terms> <dbl [506]> -3.32e-1    0.110     2.61e- 3 <lgl [4]>
##  2 zn        <lang <terms> <dbl [506]>  6.48e-3    0.00386   9.38e- 2 <lgl [4]>
##  3 zn        <lang <terms> <dbl [506]> -3.78e-5    0.0000314 2.30e- 1 <lgl [4]>
##  4 indus     <lang <terms> <dbl [506]> -1.97e+0    0.482     5.30e- 5 <lgl [4]>
##  5 indus     <lang <terms> <dbl [506]>  2.52e-1    0.0393    3.42e-10 <lgl [4]>
##  6 indus     <lang <terms> <dbl [506]> -6.98e-3    0.000957  1.20e-12 <lgl [4]>
##  7 nox       <lang <terms> <dbl [506]> -1.28e+3  170.        2.76e-13 <lgl [4]>
##  8 nox       <lang <terms> <dbl [506]>  2.25e+3  280.        6.81e-15 <lgl [4]>
##  9 nox       <lang <terms> <dbl [506]> -1.25e+3  149.        6.96e-16 <lgl [4]>
## 10 rm        <lang <terms> <dbl [506]> -3.92e+1   31.3       2.12e- 1 <lgl [4]>
## #  with 23 more rows, and 20 more variables: sigma.x <named list>, df.x <named
## #   list>, r.squared.x <named list>, adj.r.squared.x <named list>,
## #   fstatistic.x <named list>, cov.unscaled.x <named list>, coef <chr>,
## #   call.y <named list>, terms.y <named list>, residuals.y <named list>,
## #   coefficients <named list>, aliased.y <named list>, sigma.y <named list>,
## #   df.y <named list>, r.squared.y <dbl>, adj.r.squared.y <named list>,
## #   fstatistic.y <named list>, cov.unscaled.y <named list>, rse <dbl>,
## #   signif <lgl>
…
